{
  "openapi": "3.0.0",
  "info": {
    "version": "1.0.0",
    "title": "Тестовое задание"
  },
  "servers": [
    {
      "url": "localhost:5000"
    }
  ],
  "paths": {
    "/start": {
      "get": {
        "summary": "Сохранение данных в БД, поискового индекса в эластике",
        "description": "Сохранение данных из файла с тестовым массивом данных в БД, поискового индекса в эластике",
        "responses": {
          "200": {
            "description": "Данные сохранены!",
            "content": {
              "text/plain": {
                "schema": {
                  "title": "Данные сохранены!",
                  "type": "string",
                  "example": "Данные сохранены!"
                }
              }
            }
          }
        }
      }
    },
    "/search": {
      "get": {
        "summary": "Поиск по текстовому запросу",
        "description": "Сервис принимает на вход произвольный текстовый запрос, выполняет поиск по тексту документа в индексе и возвращать первые 20 документов со всем полями БД, упорядоченные по дате создания;",
        "parameters": [
          {
            "name": "search",
            "in": "query",
            "required": true,
            "description": "Посковый запрос",
            "schema": {
              "type": "string"
            }
          }
        ],
        "responses": {
          "200": {
            "description": "Успешный запрос",
            "content": {
              "application/json": {
                "schema": {
                  "title": "Success!",
                  "type": "array",
                  "items": {
                    "type": "object",
                    "properties": {
                      "id": {
                        "type": "integer"
                      },
                      "text": {
                        "type": "string"
                      },
                      "rubrics": {
                        "type": "string"
                      },
                      "date": {
                        "type": "string"
                      }
                    }
                  }
                }
              }
            }
          }
        }
      }
    },
    "/delete": {
      "get": {
        "summary": "Удаление документа из БД и индекса по полю id",
        "description": "Сервис принимает на вход id, выполняет удаление документа в индексе и БД",
        "parameters": [
          {
            "name": "id",
            "in": "query",
            "required": true,
            "description": "id документа",
            "schema": {
              "type": "integer"
            }
          }
        ],
        "responses": {
          "200": {
            "description": "Данные удалены!",
            "content": {
              "text/plain": {
                "schema": {
                  "title": "Данные удалены!",
                  "type": "string",
                  "example": "Данные удалены!"
                }
              }
            }
          }
        }
      }
    }
  }
}